Basic Machine Learning Concepts
…
---
# Step 3: Set search range for lambda

We need to vary the polynomial degree parameter `\((\lambda)\)` when building our models on the train data. In this example, we will set the range between 1 and 10:

```r
cv_tune <- cv_data %>% 
  crossing(lambda = 1:10)

cv_tune
```

```
## # A tibble: 100 x 5
##    splits           id     train              validate          lambda
##    <list>           <chr>  <list>             <list>             <int>
##  1 <split [342/38]> Fold01 <tibble [342 x 2]> <tibble [38 x 2]>      1
##  2 <split [342/38]> Fold01 <tibble [342 x 2]> <tibble [38 x 2]>      2
##  3 <split [342/38]> Fold01 <tibble [342 x 2]> <tibble [38 x 2]>      3
##  4 <split [342/38]> Fold01 <tibble [342 x 2]> <tibble [38 x 2]>      4
##  5 <split [342/38]> Fold01 <tibble [342 x 2]> <tibble [38 x 2]>      5
##  6 <split [342/38]> Fold01 <tibble [342 x 2]> <tibble [38 x 2]>      6
##  7 <split [342/38]> Fold01 <tibble [342 x 2]> <tibble [38 x 2]>      7
##  8 <split [342/38]> Fold01 <tibble [342 x 2]> <tibble [38 x 2]>      8
##  9 <split [342/38]> Fold01 <tibble [342 x 2]> <tibble [38 x 2]>      9
## 10 <split [342/38]> Fold01 <tibble [342 x 2]> <tibble [38 x 2]>     10
## # ... with 90 more rows
```
…
