08 - Causal Inference
…
---
# The final dataset

```r
ohie
```

```
## # A tibble: 23,107 x 6
##    person_id household_id numhh_list      selected     enrolled doc_any_12m
##        <dbl>        <dbl> <fct>          <dbl+lbl>    <dbl+lbl>   <dbl+lbl>
##  1         1       100001 1          1 [Selected]  0 [NOT enro~     0 [No] 
##  2         2       100002 1          1 [Selected]  1 [Enrolled]     0 [No] 
##  3         5       100005 1          1 [Selected]  0 [NOT enro~     0 [No] 
##  4         6       100006 1          1 [Selected]  0 [NOT enro~     1 [Yes]
##  5         8       102094 2          0 [Not selec~ 0 [NOT enro~     0 [No] 
##  6         9       100009 1          0 [Not selec~ 0 [NOT enro~     1 [Yes]
##  7        10       111771 2          0 [Not selec~ 0 [NOT enro~     1 [Yes]
##  8        13       100013 1          1 [Selected]  1 [Enrolled]     1 [Yes]
##  9        14       100014 1          1 [Selected]  1 [Enrolled]     0 [No] 
## 10        23       115253 2          1 [Selected]  1 [Enrolled]     1 [Yes]
## # ... with 23,097 more rows
```
…
